<?xml version="1.0" encoding="utf-8"?>
<!-- Generator: Adobe Illustrator 15.0.0, SVG Export Plug-In . SVG Version: 6.00 Build 0)  -->
<!DOCTYPE svg PUBLIC "-//W3C//DTD SVG 1.1//EN" "http://www.w3.org/Graphics/SVG/1.1/DTD/svg11.dtd">
<svg version="1.1" id="Layer_1" xmlns="http://www.w3.org/2000/svg" xmlns:xlink="http://www.w3.org/1999/xlink" x="0px" y="0px"
	 width="137px" height="16.4px" viewBox="0 0 137 16.4" style="enable-background:new 0 0 137 16.4;" xml:space="preserve">
<line style="fill:none;stroke:#BB9E72;stroke-width:2;stroke-miterlimit:10;" x1="0" y1="8.2" x2="134.8" y2="8.2"/>
<polygon style="fill:#BB9E72;" points="128.2,16.4 126.8,14.9 134,8.2 126.8,1.5 128.2,0 137,8.2 "/>
</svg>
