<?xml version="1.0" encoding="utf-8"?>
<!-- Generator: Adobe Illustrator 15.0.0, SVG Export Plug-In . SVG Version: 6.00 Build 0)  -->
<!DOCTYPE svg PUBLIC "-//W3C//DTD SVG 1.1//EN" "http://www.w3.org/Graphics/SVG/1.1/DTD/svg11.dtd">
<svg version="1.1" id="Layer_1" xmlns="http://www.w3.org/2000/svg" xmlns:xlink="http://www.w3.org/1999/xlink" x="0px" y="0px"
	 width="56px" height="56px" viewBox="0 0 56 56" style="enable-background:new 0 0 56 56;" xml:space="preserve">
<path style="fill:#BB9E72;" d="M0,56h56V0H0V56z M17,34.6c0,4.3,0,8.5,0,12.8c0,0.7,0,0.7-0.7,0.7c-2.4,0-4.8,0-7.1,0
	c-0.5,0-0.6-0.1-0.6-0.6c0-8.6,0-17.1,0-25.7c0-0.5,0.1-0.6,0.6-0.6c2.4,0,4.8,0,7.2,0c0.5,0,0.6,0.2,0.6,0.6
	C17,26.1,17,30.3,17,34.6 M12.7,17.6c-2.7,0-4.9-2.1-4.9-4.8c0-2.7,2.1-4.9,4.8-4.9c2.7,0,4.9,2.2,4.9,4.9
	C17.6,15.5,15.4,17.6,12.7,17.6 M47.5,48.1c-2.4,0-4.8,0-7.1,0c-0.5,0-0.7-0.2-0.7-0.7c0-4.4,0-8.8,0-13.2c0-1.1-0.1-2.3-0.4-3.4
	C38.9,29,37.6,28,35.7,28c-0.6,0-1.3,0-1.9,0.2c-1.9,0.5-2.8,2-3.1,3.8c-0.2,0.9-0.2,1.8-0.2,2.7c0,4.3,0,8.6,0,12.8
	c0,0.5-0.1,0.7-0.7,0.7c-2.4,0-4.8,0-7.1,0c-0.5,0-0.7-0.2-0.7-0.7c0-8.5,0-17,0-25.5c0-0.5,0.1-0.7,0.7-0.7c2.3,0,4.6,0,6.9,0
	c0.5,0,0.6,0.2,0.6,0.6c0,1,0,1.9,0,3c1.3-2.1,3-3.4,5.2-4c2.7-0.7,5.3-0.5,7.9,0.7c2.5,1.1,3.7,3.3,4.3,5.9
	c0.4,1.9,0.5,3.8,0.5,5.8c0,4.7,0,9.5,0,14.2C48.1,47.9,48,48.1,47.5,48.1"/>
</svg>
