<?xml version="1.0" encoding="utf-8"?>
<!-- Generator: Adobe Illustrator 15.0.0, SVG Export Plug-In . SVG Version: 6.00 Build 0)  -->
<!DOCTYPE svg PUBLIC "-//W3C//DTD SVG 1.1//EN" "http://www.w3.org/Graphics/SVG/1.1/DTD/svg11.dtd">
<svg version="1.1" id="Layer_1" xmlns="http://www.w3.org/2000/svg" xmlns:xlink="http://www.w3.org/1999/xlink" x="0px" y="0px"
	 width="56px" height="56px" viewBox="0 0 56 56" enable-background="new 0 0 56 56" xml:space="preserve">
<path fill="#BB9E72" d="M0,56h56V0H0V56z M43.2,20.2c0,0.3,0,0.7,0,1c0,10.3-7.9,22.3-22.3,22.3c-4.4,0-8.5-1.3-12-3.5
	c0.6,0.1,1.2,0.1,1.9,0.1c3.7,0,7-1.3,9.7-3.4c-3.4-0.1-6.3-2.3-7.3-5.4c0.5,0.1,1,0.1,1.5,0.1c0.7,0,1.4-0.1,2.1-0.3
	c-3.6-0.7-6.3-3.9-6.3-7.7v-0.1c1.1,0.6,2.3,0.9,3.5,1c-2.1-1.4-3.5-3.8-3.5-6.5c0-1.4,0.4-2.8,1.1-3.9c3.9,4.7,9.6,7.9,16.2,8.2
	c-0.1-0.6-0.2-1.2-0.2-1.8c0-4.3,3.5-7.8,7.8-7.8c2.2,0,4.3,0.9,5.7,2.5c1.8-0.4,3.5-1,5-1.9c-0.6,1.8-1.8,3.4-3.5,4.3
	c1.6-0.2,3.1-0.6,4.5-1.2C46,17.7,44.7,19.1,43.2,20.2"/>
</svg>
